\relax 
\providecommand\hyper@newdestlabel[2]{}
\providecommand\BKM@entry[2]{}
\providecommand\HyperFirstAtBeginDocument{\AtBeginDocument}
\HyperFirstAtBeginDocument{\ifx\hyper@anchor\@undefined
\global\let\oldcontentsline\contentsline
\gdef\contentsline#1#2#3#4{\oldcontentsline{#1}{#2}{#3}}
\global\let\oldnewlabel\newlabel
\gdef\newlabel#1#2{\newlabelxx{#1}#2}
\gdef\newlabelxx#1#2#3#4#5#6{\oldnewlabel{#1}{{#2}{#3}}}
\AtEndDocument{\ifx\hyper@anchor\@undefined
\let\contentsline\oldcontentsline
\let\newlabel\oldnewlabel
\fi}
\fi}
\global\let\hyper@last\relax 
\gdef\HyperFirstAtBeginDocument#1{#1}
\providecommand\HyField@AuxAddToFields[1]{}
\providecommand\HyField@AuxAddToCoFields[2]{}
\babel@aux{english}{}
\@writefile{nav}{\headcommand {\slideentry {0}{0}{1}{1/1}{}{0}}}
\@writefile{nav}{\headcommand {\beamer@framepages {1}{1}}}
\@writefile{nav}{\headcommand {\slideentry {0}{0}{2}{2/2}{}{0}}}
\@writefile{nav}{\headcommand {\beamer@framepages {2}{2}}}
\@writefile{nav}{\headcommand {\slideentry {0}{0}{3}{3/3}{}{0}}}
\@writefile{nav}{\headcommand {\beamer@framepages {3}{3}}}
\BKM@entry{id=1,open,dest={4F75746C696E6531},srcline={179}}{31}
\BKM@entry{id=2,open,dest={4F75746C696E65312E31},srcline={180}}{5773746570}
\BKM@entry{id=3,open,dest={4F75746C696E65312E312E312E34},srcline={182}}{50727A796461746E65206C696E6B69}
\@writefile{nav}{\headcommand {\partentry {1}{1}}}
\@writefile{nav}{\headcommand {\beamer@partpages {1}{3}}}
\@writefile{nav}{\headcommand {\beamer@sectionpages {1}{3}}}
\@writefile{nav}{\headcommand {\beamer@subsectionpages {1}{3}}}
\@writefile{toc}{\beamer@sectionintoc {1}{Wst\IeC {\k e}p}{4}{1}{1}}
\@writefile{nav}{\headcommand {\beamer@sectionpages {4}{3}}}
\@writefile{nav}{\headcommand {\beamer@subsectionpages {4}{3}}}
\@writefile{nav}{\headcommand {\sectionentry {1}{Wst\IeC {\k e}p}{4}{Wst\IeC {\k e}p}{1}}}
\@writefile{toc}{\beamer@subsectionintoc {1}{1}{Przydatne linki}{4}{1}{1}}
\@writefile{nav}{\headcommand {\beamer@subsectionpages {4}{3}}}
\@writefile{nav}{\headcommand {\beamer@subsectionentry {1}{1}{1}{4}{Przydatne linki}}}
\@writefile{nav}{\headcommand {\slideentry {1}{1}{1}{4/4}{Przydatne linki}{1}}}
\@writefile{nav}{\headcommand {\beamer@framepages {4}{4}}}
\BKM@entry{id=4,open,dest={4F75746C696E65312E312E322E35},srcline={204}}{4A6176615363726970742076732E2045434D415363726970742076732E2054797065536372697074}
\@writefile{toc}{\beamer@subsectionintoc {1}{2}{JavaScript vs. ECMAScript vs. TypeScript}{5}{1}{1}}
\@writefile{nav}{\headcommand {\beamer@subsectionpages {4}{4}}}
\@writefile{nav}{\headcommand {\beamer@subsectionentry {1}{1}{2}{5}{JavaScript vs. ECMAScript vs. TypeScript}}}
\@writefile{nav}{\headcommand {\slideentry {1}{2}{1}{5/7}{JavaScript vs. ECMAScript vs. TypeScript}{1}}}
\@writefile{nav}{\headcommand {\beamer@framepages {5}{7}}}
\BKM@entry{id=5,open,dest={4F75746C696E65312E312E332E38},srcline={255}}{416E67756C61724A732076732E20416E67756C6172}
\@writefile{toc}{\beamer@subsectionintoc {1}{3}{AngularJs vs. Angular}{8}{1}{1}}
\@writefile{nav}{\headcommand {\beamer@subsectionpages {5}{7}}}
\@writefile{nav}{\headcommand {\beamer@subsectionentry {1}{1}{3}{8}{AngularJs vs. Angular}}}
\@writefile{nav}{\headcommand {\slideentry {1}{3}{1}{8/9}{AngularJs vs. Angular}{1}}}
\@writefile{nav}{\headcommand {\beamer@framepages {8}{9}}}
\BKM@entry{id=6,open,dest={4F75746C696E65312E32},srcline={298}}{53726F646F7769736B6F207072616379}
\BKM@entry{id=7,open,dest={4F75746C696E65312E322E312E3130},srcline={300}}{496E7374616C61636A61202E4E657420436F72652C204E6F64654A532069206B6C69656E746120676974}
\@writefile{toc}{\beamer@sectionintoc {2}{\IeC {\'S}rodowisko pracy}{10}{1}{2}}
\@writefile{nav}{\headcommand {\beamer@sectionpages {4}{9}}}
\@writefile{nav}{\headcommand {\beamer@subsectionpages {8}{9}}}
\@writefile{nav}{\headcommand {\sectionentry {2}{\IeC {\'S}rodowisko pracy}{10}{\IeC {\'S}rodowisko pracy}{1}}}
\@writefile{toc}{\beamer@subsectionintoc {2}{1}{Instalacja .Net Core, NodeJS i klienta git}{10}{1}{2}}
\@writefile{nav}{\headcommand {\beamer@subsectionpages {10}{9}}}
\@writefile{nav}{\headcommand {\beamer@subsectionentry {1}{2}{1}{10}{Instalacja .Net Core, NodeJS i klienta git}}}
\@writefile{nav}{\headcommand {\slideentry {2}{1}{1}{10/10}{Instalacja .Net Core, NodeJS i klienta git}{1}}}
\@writefile{nav}{\headcommand {\beamer@framepages {10}{10}}}
\BKM@entry{id=8,open,dest={4F75746C696E65312E322E322E3131},srcline={319}}{496E7374616C61636A61205479706553637269707420692040616E67756C61722F636C69}
\@writefile{toc}{\beamer@subsectionintoc {2}{2}{Instalacja TypeScript i @angular/cli}{11}{1}{2}}
\@writefile{nav}{\headcommand {\beamer@subsectionpages {10}{10}}}
\@writefile{nav}{\headcommand {\beamer@subsectionentry {1}{2}{2}{11}{Instalacja TypeScript i @angular/cli}}}
\@writefile{nav}{\headcommand {\slideentry {2}{2}{1}{11/11}{Instalacja TypeScript i @angular/cli}{1}}}
\@writefile{nav}{\headcommand {\beamer@framepages {11}{11}}}
\BKM@entry{id=9,open,dest={4F75746C696E65312E33},srcline={334}}{506F6473746177792054797065536372697074}
\BKM@entry{id=10,open,dest={4F75746C696E65312E332E312E3132},srcline={335}}{54797079}
\@writefile{toc}{\beamer@sectionintoc {3}{Podstawy TypeScript}{12}{1}{3}}
\@writefile{nav}{\headcommand {\beamer@sectionpages {10}{11}}}
\@writefile{nav}{\headcommand {\beamer@subsectionpages {11}{11}}}
\@writefile{nav}{\headcommand {\sectionentry {3}{Podstawy TypeScript}{12}{Podstawy TypeScript}{1}}}
\@writefile{toc}{\beamer@subsectionintoc {3}{1}{Typy}{12}{1}{3}}
\@writefile{nav}{\headcommand {\beamer@subsectionpages {12}{11}}}
\@writefile{nav}{\headcommand {\beamer@subsectionentry {1}{3}{1}{12}{Typy}}}
\@writefile{nav}{\headcommand {\slideentry {3}{1}{1}{12/12}{Typy}{1}}}
\@writefile{nav}{\headcommand {\beamer@framepages {12}{12}}}
\@writefile{nav}{\headcommand {\slideentry {3}{1}{2}{13/13}{Typy}{1}}}
\@writefile{nav}{\headcommand {\beamer@framepages {13}{13}}}
\BKM@entry{id=11,open,dest={4F75746C696E65312E332E322E3134},srcline={373}}{4F626A656B746F776F7363}
\@writefile{toc}{\beamer@subsectionintoc {3}{2}{Objektowo\IeC {\'s}\IeC {\'c}}{14}{1}{3}}
\@writefile{nav}{\headcommand {\beamer@subsectionpages {12}{13}}}
\@writefile{nav}{\headcommand {\beamer@subsectionentry {1}{3}{2}{14}{Objektowo\IeC {\'s}\IeC {\'c}}}}
\@writefile{nav}{\headcommand {\slideentry {3}{2}{1}{14/14}{Objektowo\IeC {\'s}\IeC {\'c}}{1}}}
\@writefile{nav}{\headcommand {\beamer@framepages {14}{14}}}
\@writefile{nav}{\headcommand {\slideentry {3}{2}{2}{15/15}{Objektowo\IeC {\'s}\IeC {\'c}}{1}}}
\@writefile{nav}{\headcommand {\beamer@framepages {15}{15}}}
\@writefile{nav}{\headcommand {\slideentry {3}{2}{3}{16/16}{Objektowo\IeC {\'s}\IeC {\'c}}{1}}}
\@writefile{nav}{\headcommand {\beamer@framepages {16}{16}}}
\@writefile{nav}{\headcommand {\slideentry {3}{2}{4}{17/17}{Objektowo\IeC {\'s}\IeC {\'c}}{1}}}
\@writefile{nav}{\headcommand {\beamer@framepages {17}{17}}}
\@writefile{nav}{\headcommand {\slideentry {3}{2}{5}{18/18}{Objektowo\IeC {\'s}\IeC {\'c}}{1}}}
\@writefile{nav}{\headcommand {\beamer@framepages {18}{18}}}
\@writefile{nav}{\headcommand {\slideentry {3}{2}{6}{19/19}{Objektowo\IeC {\'s}\IeC {\'c}}{1}}}
\@writefile{nav}{\headcommand {\beamer@framepages {19}{19}}}
\BKM@entry{id=12,open,dest={4F75746C696E65312E332E332E3230},srcline={491}}{456E6B617073756C61636A61}
\@writefile{toc}{\beamer@subsectionintoc {3}{3}{Enkapsulacja}{20}{1}{3}}
\@writefile{nav}{\headcommand {\beamer@subsectionpages {14}{19}}}
\@writefile{nav}{\headcommand {\beamer@subsectionentry {1}{3}{3}{20}{Enkapsulacja}}}
\@writefile{nav}{\headcommand {\slideentry {3}{3}{1}{20/20}{Enkapsulacja}{1}}}
\@writefile{nav}{\headcommand {\beamer@framepages {20}{20}}}
\BKM@entry{id=13,open,dest={4F75746C696E65312E332E342E3231},srcline={510}}{4174727962757479}
\@writefile{toc}{\beamer@subsectionintoc {3}{4}{Atrybuty}{21}{1}{3}}
\@writefile{nav}{\headcommand {\beamer@subsectionpages {20}{20}}}
\@writefile{nav}{\headcommand {\beamer@subsectionentry {1}{3}{4}{21}{Atrybuty}}}
\@writefile{nav}{\headcommand {\slideentry {3}{4}{1}{21/21}{Atrybuty}{1}}}
\@writefile{nav}{\headcommand {\beamer@framepages {21}{21}}}
\BKM@entry{id=14,open,dest={4F75746C696E65312E34},srcline={525}}{506F64737461777920416E67756C61722037}
\BKM@entry{id=15,open,dest={4F75746C696E65312E342E312E3232},srcline={526}}{496E69636A616C697A61636A612061706C696B61636A69}
\@writefile{toc}{\beamer@sectionintoc {4}{Podstawy Angular 7}{22}{1}{4}}
\@writefile{nav}{\headcommand {\beamer@sectionpages {12}{21}}}
\@writefile{nav}{\headcommand {\beamer@subsectionpages {21}{21}}}
\@writefile{nav}{\headcommand {\sectionentry {4}{Podstawy Angular 7}{22}{Podstawy Angular 7}{1}}}
\@writefile{toc}{\beamer@subsectionintoc {4}{1}{Inicjalizacja aplikacji}{22}{1}{4}}
\@writefile{nav}{\headcommand {\beamer@subsectionpages {22}{21}}}
\@writefile{nav}{\headcommand {\beamer@subsectionentry {1}{4}{1}{22}{Inicjalizacja aplikacji}}}
\@writefile{nav}{\headcommand {\slideentry {4}{1}{1}{22/22}{Inicjalizacja aplikacji}{1}}}
\@writefile{nav}{\headcommand {\beamer@framepages {22}{22}}}
\BKM@entry{id=16,open,dest={4F75746C696E65312E342E322E3233},srcline={554}}{406E674D6F64756C65}
\@writefile{toc}{\beamer@subsectionintoc {4}{2}{@ngModule}{23}{1}{4}}
\@writefile{nav}{\headcommand {\beamer@subsectionpages {22}{22}}}
\@writefile{nav}{\headcommand {\beamer@subsectionentry {1}{4}{2}{23}{@ngModule}}}
\@writefile{nav}{\headcommand {\slideentry {4}{2}{1}{23/23}{@ngModule}{1}}}
\@writefile{nav}{\headcommand {\beamer@framepages {23}{23}}}
\@writefile{nav}{\headcommand {\slideentry {4}{2}{2}{24/24}{@ngModule}{1}}}
\@writefile{nav}{\headcommand {\beamer@framepages {24}{24}}}
\BKM@entry{id=17,open,dest={4F75746C696E65312E342E332E3235},srcline={598}}{40436F6D706F6E656E74}
\@writefile{toc}{\beamer@subsectionintoc {4}{3}{@Component}{25}{1}{4}}
\@writefile{nav}{\headcommand {\beamer@subsectionpages {23}{24}}}
\@writefile{nav}{\headcommand {\beamer@subsectionentry {1}{4}{3}{25}{@Component}}}
\@writefile{nav}{\headcommand {\slideentry {4}{3}{1}{25/25}{@Component}{1}}}
\@writefile{nav}{\headcommand {\beamer@framepages {25}{25}}}
\@writefile{nav}{\headcommand {\slideentry {4}{3}{2}{26/26}{@Component}{1}}}
\@writefile{nav}{\headcommand {\beamer@framepages {26}{26}}}
\BKM@entry{id=18,open,dest={4F75746C696E65312E342E342E3237},srcline={640}}{40446972656374697665}
\@writefile{toc}{\beamer@subsectionintoc {4}{4}{@Directive}{27}{1}{4}}
\@writefile{nav}{\headcommand {\beamer@subsectionpages {25}{26}}}
\@writefile{nav}{\headcommand {\beamer@subsectionentry {1}{4}{4}{27}{@Directive}}}
\@writefile{nav}{\headcommand {\slideentry {4}{4}{1}{27/27}{@Directive}{1}}}
\@writefile{nav}{\headcommand {\beamer@framepages {27}{27}}}
\@writefile{nav}{\headcommand {\slideentry {4}{4}{2}{28/28}{@Directive}{1}}}
\@writefile{nav}{\headcommand {\beamer@framepages {28}{28}}}
\BKM@entry{id=19,open,dest={4F75746C696E65312E342E352E3239},srcline={689}}{40496E6A65637461626C65}
\@writefile{toc}{\beamer@subsectionintoc {4}{5}{@Injectable}{29}{1}{4}}
\@writefile{nav}{\headcommand {\beamer@subsectionpages {27}{28}}}
\@writefile{nav}{\headcommand {\beamer@subsectionentry {1}{4}{5}{29}{@Injectable}}}
\@writefile{nav}{\headcommand {\slideentry {4}{5}{1}{29/29}{@Injectable}{1}}}
\@writefile{nav}{\headcommand {\beamer@framepages {29}{29}}}
\BKM@entry{id=20,open,dest={4F75746C696E65312E342E362E3330},srcline={717}}{52656E6465726F77616E69652069206C696E6B6F77616E6965}
\@writefile{toc}{\beamer@subsectionintoc {4}{6}{Renderowanie i linkowanie}{30}{1}{4}}
\@writefile{nav}{\headcommand {\beamer@subsectionpages {29}{29}}}
\@writefile{nav}{\headcommand {\beamer@subsectionentry {1}{4}{6}{30}{Renderowanie i linkowanie}}}
\@writefile{nav}{\headcommand {\slideentry {4}{6}{1}{30/30}{Renderowanie i linkowanie}{1}}}
\@writefile{nav}{\headcommand {\beamer@framepages {30}{30}}}
\@writefile{nav}{\headcommand {\slideentry {4}{6}{2}{31/31}{Renderowanie i linkowanie}{1}}}
\@writefile{nav}{\headcommand {\beamer@framepages {31}{31}}}
\@writefile{nav}{\headcommand {\slideentry {4}{6}{3}{32/32}{Renderowanie i linkowanie}{1}}}
\@writefile{nav}{\headcommand {\beamer@framepages {32}{32}}}
\BKM@entry{id=21,open,dest={4F75746C696E65312E342E372E3333},srcline={786}}{496E7374616C61636A61206269626C696F74656B}
\@writefile{toc}{\beamer@subsectionintoc {4}{7}{Instalacja bibliotek}{33}{1}{4}}
\@writefile{nav}{\headcommand {\beamer@subsectionpages {30}{32}}}
\@writefile{nav}{\headcommand {\beamer@subsectionentry {1}{4}{7}{33}{Instalacja bibliotek}}}
\@writefile{nav}{\headcommand {\slideentry {4}{7}{1}{33/33}{Instalacja bibliotek}{1}}}
\@writefile{nav}{\headcommand {\beamer@framepages {33}{33}}}
\@writefile{nav}{\headcommand {\slideentry {4}{7}{2}{34/34}{Instalacja bibliotek}{1}}}
\@writefile{nav}{\headcommand {\beamer@framepages {34}{34}}}
\BKM@entry{id=22,open,dest={4F75746C696E6532},srcline={822}}{32}
\BKM@entry{id=23,open,dest={4F75746C696E65322E35},srcline={824}}{4275646F77612061706C696B61636A69}
\BKM@entry{id=24,open,dest={4F75746C696E65322E352E312E3335},srcline={825}}{54656D706C6174652070726F6A656B7475}
\@writefile{nav}{\headcommand {\partentry {2}{2}}}
\@writefile{nav}{\headcommand {\beamer@partpages {4}{34}}}
\@writefile{nav}{\headcommand {\beamer@sectionpages {22}{34}}}
\@writefile{nav}{\headcommand {\beamer@subsectionpages {33}{34}}}
\@writefile{toc}{\beamer@sectionintoc {5}{Budowa aplikacji}{35}{2}{5}}
\@writefile{nav}{\headcommand {\beamer@sectionpages {35}{34}}}
\@writefile{nav}{\headcommand {\beamer@subsectionpages {35}{34}}}
\@writefile{nav}{\headcommand {\sectionentry {5}{Budowa aplikacji}{35}{Budowa aplikacji}{2}}}
\@writefile{toc}{\beamer@subsectionintoc {5}{1}{Template projektu}{35}{2}{5}}
\@writefile{nav}{\headcommand {\beamer@subsectionpages {35}{34}}}
\@writefile{nav}{\headcommand {\beamer@subsectionentry {2}{5}{1}{35}{Template projektu}}}
\@writefile{nav}{\headcommand {\slideentry {5}{1}{1}{35/35}{Template projektu}{2}}}
\@writefile{nav}{\headcommand {\beamer@framepages {35}{35}}}
\@writefile{nav}{\headcommand {\slideentry {5}{1}{2}{36/36}{Template projektu}{2}}}
\@writefile{nav}{\headcommand {\beamer@framepages {36}{36}}}
\@writefile{nav}{\headcommand {\slideentry {5}{1}{3}{37/37}{Template projektu}{2}}}
\@writefile{nav}{\headcommand {\beamer@framepages {37}{37}}}
\BKM@entry{id=25,open,dest={4F75746C696E65322E352E322E3338},srcline={883}}{4B6F6D706F6E656E7479207374617479637A6E65}
\@writefile{toc}{\beamer@subsectionintoc {5}{2}{Komponenty statyczne}{38}{2}{5}}
\@writefile{nav}{\headcommand {\beamer@subsectionpages {35}{37}}}
\@writefile{nav}{\headcommand {\beamer@subsectionentry {2}{5}{2}{38}{Komponenty statyczne}}}
\@writefile{nav}{\headcommand {\slideentry {5}{2}{1}{38/38}{Komponenty statyczne}{2}}}
\@writefile{nav}{\headcommand {\beamer@framepages {38}{38}}}
\@writefile{nav}{\headcommand {\slideentry {5}{2}{2}{39/39}{Komponenty statyczne}{2}}}
\@writefile{nav}{\headcommand {\beamer@framepages {39}{39}}}
\BKM@entry{id=26,open,dest={4F75746C696E65322E352E332E3430},srcline={927}}{4B6F6D706F6E656E742044617368626F617264}
\@writefile{toc}{\beamer@subsectionintoc {5}{3}{Komponent Dashboard}{40}{2}{5}}
\@writefile{nav}{\headcommand {\beamer@subsectionpages {38}{39}}}
\@writefile{nav}{\headcommand {\beamer@subsectionentry {2}{5}{3}{40}{Komponent Dashboard}}}
\@writefile{nav}{\headcommand {\slideentry {5}{3}{1}{40/40}{Komponent Dashboard}{2}}}
\@writefile{nav}{\headcommand {\beamer@framepages {40}{40}}}
\@writefile{nav}{\headcommand {\slideentry {5}{3}{2}{41/41}{Komponent Dashboard}{2}}}
\@writefile{nav}{\headcommand {\beamer@framepages {41}{41}}}
\@writefile{nav}{\headcommand {\slideentry {5}{3}{3}{42/42}{Komponent Dashboard}{2}}}
\@writefile{nav}{\headcommand {\beamer@framepages {42}{42}}}
\BKM@entry{id=27,open,dest={4F75746C696E65322E352E342E3433},srcline={993}}{4B6F6D706F6E656E742041646D696E4C697374}
\@writefile{toc}{\beamer@subsectionintoc {5}{4}{Komponent AdminList}{43}{2}{5}}
\@writefile{nav}{\headcommand {\beamer@subsectionpages {40}{42}}}
\@writefile{nav}{\headcommand {\beamer@subsectionentry {2}{5}{4}{43}{Komponent AdminList}}}
\@writefile{nav}{\headcommand {\slideentry {5}{4}{1}{43/43}{Komponent AdminList}{2}}}
\@writefile{nav}{\headcommand {\beamer@framepages {43}{43}}}
\@writefile{nav}{\headcommand {\slideentry {5}{4}{2}{44/44}{Komponent AdminList}{2}}}
\@writefile{nav}{\headcommand {\beamer@framepages {44}{44}}}
\@writefile{nav}{\headcommand {\beamer@partpages {35}{44}}}
\@writefile{nav}{\headcommand {\beamer@subsectionpages {43}{44}}}
\@writefile{nav}{\headcommand {\beamer@sectionpages {35}{44}}}
\@writefile{nav}{\headcommand {\beamer@documentpages {44}}}
\@writefile{nav}{\headcommand {\gdef \inserttotalframenumber {40}}}
